<?xml version="1.0" encoding="UTF-8" standalone="no"?>
<!-- Created with Inkscape (http://www.inkscape.org/) -->

<svg
   xmlns:dc="http://purl.org/dc/elements/1.1/"
   xmlns:cc="http://creativecommons.org/ns#"
   xmlns:rdf="http://www.w3.org/1999/02/22-rdf-syntax-ns#"
   xmlns:svg="http://www.w3.org/2000/svg"
   xmlns="http://www.w3.org/2000/svg"
   xmlns:xlink="http://www.w3.org/1999/xlink"
   xmlns:sodipodi="http://sodipodi.sourceforge.net/DTD/sodipodi-0.dtd"
   xmlns:inkscape="http://www.inkscape.org/namespaces/inkscape"
   width="210mm"
   height="297mm"
   viewBox="0 0 744.09448819 1052.3622047"
   id="svg2"
   version="1.1"
   inkscape:version="0.91 r13725"
   sodipodi:docname="simpletex.svg">
  <defs
     id="defs4">
    <inkscape:perspective
       sodipodi:type="inkscape:persp3d"
       inkscape:vp_x="0 : 526.1811 : 1"
       inkscape:vp_y="0 : 1000 : 0"
       inkscape:vp_z="744.09449 : 526.1811 : 1"
       inkscape:persp3d-origin="372.04724 : 350.7874 : 1"
       id="perspective4883" />
    <pattern
       patternUnits="userSpaceOnUse"
       width="256"
       height="256"
       id="checks">
      <image
         sodipodi:absref="C:\users\Matthew\Documents\gamedev\SvgLib\svgtest\core\assets\textures\check.png"
         xlink:href="textures\check.png"
         y="0"
         x="0"
         id="checksimg"
         preserveAspectRatio="none"
         height="256"
         width="256" />
    </pattern>
    <pattern
       patternTransform="translate(158.59393,3.1767585e-6)"
       id="pattern4895"
       xlink:href="#checks-5"
       inkscape:collect="always" />
    <pattern
       patternUnits="userSpaceOnUse"
       width="256"
       height="256"
       id="checks-5">
      <image
         sodipodi:absref="C:\users\Matthew\Documents\gamedev\SvgLib\svgtest\core\assets\textures\check.png"
         xlink:href="textures\check.png"
         width="256"
         height="256"
         preserveAspectRatio="none"
         id="checksimg-9"
         x="0"
         y="0" />
    </pattern>
  </defs>
  <sodipodi:namedview
     id="base"
     pagecolor="#ffffff"
     bordercolor="#666666"
     borderopacity="1.0"
     inkscape:pageopacity="0.0"
     inkscape:pageshadow="2"
     inkscape:zoom="0.49497476"
     inkscape:cx="-13.238773"
     inkscape:cy="1136.019"
     inkscape:document-units="px"
     inkscape:current-layer="layer1"
     showgrid="false"
     inkscape:window-width="1280"
     inkscape:window-height="962"
     inkscape:window-x="1912"
     inkscape:window-y="168"
     inkscape:window-maximized="1"
     showguides="false"
     inkscape:snap-page="false">
    <inkscape:grid
       type="xygrid"
       id="grid4900" />
  </sodipodi:namedview>
  <metadata
     id="metadata7">
    <rdf:RDF>
      <cc:Work
         rdf:about="">
        <dc:format>image/svg+xml</dc:format>
        <dc:type
           rdf:resource="http://purl.org/dc/dcmitype/StillImage" />
        <dc:title />
      </cc:Work>
    </rdf:RDF>
  </metadata>
  <g
     inkscape:label="Layer 1"
     inkscape:groupmode="layer"
     id="layer1">
    <path
       style="fill:url(#checks);fill-rule:evenodd;stroke:#000000;stroke-width:1px;stroke-linecap:butt;stroke-linejoin:miter;stroke-opacity:1;fill-opacity:1.0"
       d="m -62.629456,-355.7904 12.12183,149.50257 232.335076,22.22335 42.42641,-139.40104 z"
       id="path4895"
       inkscape:connector-curvature="0" />
    <g
       id="g4867"
       transform="matrix(-1.0726516,1.2703079,-1.1185816,-1.2181478,598.57239,-687.85867)">
      <path
         inkscape:connector-curvature="0"
         id="path4901"
         d="m 299.99999,-300.4949 74.28571,61.42857 -92.85714,45.71428 -34.28571,-52.85714 z"
         style="fill:url(#checks);fill-opacity:1;fill-rule:evenodd;stroke:#000000;stroke-width:1px;stroke-linecap:butt;stroke-linejoin:miter;stroke-opacity:1" />
      <path
         inkscape:connector-curvature="0"
         id="path4903"
         d="m 321.42856,-133.35205 -75.71428,38.571428 68.57143,65.714284 92.85714,-48.571428 z"
         style="fill:url(#checks);fill-opacity:1;fill-rule:evenodd;stroke:#000000;stroke-width:1px;stroke-linecap:butt;stroke-linejoin:miter;stroke-opacity:1" />
    </g>
    <g
       id="g4155"
       transform="matrix(-0.58577042,0.81047704,-0.81047704,-0.58577042,-339.16251,41.598452)">
      <circle
         r="131.31982"
         cy="-238.61272"
         cx="-284.86301"
         id="path4148"
         style="fill:url(#checks);fill-opacity:1;stroke:#f30000;stroke-opacity:1" />
      <g
         transform="matrix(0.70191845,0.71225732,-0.71225732,0.70191845,-321.70688,-197.32262)"
         id="g4909">
        <rect
           style="fill:url(#checks);fill-opacity:1;stroke:none;stroke-opacity:1"
           id="rect4880"
           width="107.07616"
           height="307.08636"
           x="240.41631"
           y="-208.30814" />
        <rect
           style="fill:url(#pattern4895);fill-opacity:1;stroke:none;stroke-opacity:1"
           id="rect4880-5"
           width="107.07616"
           height="307.08636"
           x="399.01025"
           y="-208.30814" />
      </g>
    </g>
    <circle
       style="fill:url(#checks);fill-opacity:1.0;stroke:#f30000;stroke-opacity:1"
       id="path4881"
       cx="176.77669"
       cy="89.686859"
       r="126.26907" />
  </g>
</svg>
